﻿username,friendList
andy,ana:igor:markov:milica:rogan
ana,andy:markov:lisakov:bojana:teodora
igor,andy:lisakov:bojana:masa:anastasija
milan,milos:kristina:teodora:milica:zeljko
zexon,lisakov:ana:milan:markov:katarina
markov,rogan:lazar:marija:milica:lisakov
lisakov,rogan:zeljko:milan:igor:andy
zeljko,andy:igor:zexon:stefan:katarina
stefan,milan:bojana:masa:zexon:markov
milica,milan:ana:zexon:rogan:milos
marija,katarina:kristina:lazar:milos:rogan
teodora,anastasija:masa:bojana:stefan:zeljko
bojana,lisakov:marija:markov:milan:igor
masa,andy:ana:igor:markov:zeljko
anastasija,rogan:zeljko:milan:igor:andy
rogan,zexon:stefan:zeljko:milica:marija
milos,ana:igor:markov:milica:rogan
lazar,rogan:zeljko:milan:igor:andy
kristina,andy:lisakov:bojana:masa:anastasija
katarina,andy:lisakov:bojana:masa:anastasija